<?xml version="1.0" encoding="utf-8"?>
<!-- Generator: Adobe Illustrator 25.1.0, SVG Export Plug-In . SVG Version: 6.00 Build 0)  -->
<svg version="1.1" id="Layer_1" xmlns="http://www.w3.org/2000/svg" xmlns:xlink="http://www.w3.org/1999/xlink" x="0px" y="0px"
	 viewBox="0 0 512 262.8" style="enable-background:new 0 0 512 262.8;" xml:space="preserve">
<style type="text/css">
	.st0{fill:#D5D6DF;}
</style>
<g>
	<g>
		<path class="st0" d="M504.1,121.3c-40.8-25.2-87.7-38.6-135.7-38.6h-37.1l-32.5-48.1C284.1,12.9,259.7,0,233.5,0H126
			c-9.2,0-16.7,7.5-16.7,16.7c0,7.5,4.9,13.8,11.7,15.9l-20.5,50.8c-42.7,5.4-76.3,40.2-79.8,83.5h-4.1c-9.2,0-16.7,7.5-16.7,16.7
			s7.5,16.7,16.7,16.7h3.8v7.4c0,9.2,7.5,16.7,16.7,16.7h28c7.1,22.2,27.9,38.4,52.5,38.4c24.6,0,45.4-16.2,52.5-38.4h197.4
			c7.1,22.2,28,38.4,52.5,38.4c25.1,0,46.3-16.9,52.9-39.8c22.3-5.4,38.9-25.5,38.9-49.5v-38C512,129.7,509,124.3,504.1,121.3z
			 M155.7,35.9c0.3-0.8,0.6-1.7,0.8-2.5h77c15.1,0,29.1,7.5,37.6,19.9l19.8,29.3h-154L155.7,35.9z M117.7,229.4
			c-12,0-21.7-9.7-21.7-21.7s9.7-21.7,21.7-21.7s21.7,9.7,21.7,21.7S129.7,229.4,117.7,229.4z M420.1,229.4
			c-12,0-21.7-9.7-21.7-21.7s9.7-21.7,21.7-21.7c12,0,21.7,9.7,21.7,21.7C441.8,219.7,432.1,229.4,420.1,229.4z M471.4,187.6
			c-8.1-20.5-28-35-51.3-35c-24.6,0-45.4,16.2-52.5,38.4H170.2c-7.1-22.2-27.9-38.4-52.5-38.4c-24.6,0-45.4,16.2-52.5,38.4H53.9
			v-16.6c0-32.1,26.1-58.2,58.2-58.3c0,0,0,0,0.1,0c0,0,0.1,0,0.1,0h256.2c38.7,0,76.6,10,110.2,28.9v28.4h0
			C478.6,179.2,475.8,184.4,471.4,187.6z"/>
	</g>
</g>
<g>
	<g>
		<path class="st0" d="M274.2,127h-21.7c-9.2,0-16.7,7.5-16.7,16.7c0,9.2,7.5,16.7,16.7,16.7h21.7c9.2,0,16.7-7.5,16.7-16.7
			S283.4,127,274.2,127z"/>
	</g>
</g>
</svg>
