<?xml version="1.0" encoding="utf-8"?>
<!-- Generator: Adobe Illustrator 24.0.2, SVG Export Plug-In . SVG Version: 6.00 Build 0)  -->
<svg version="1.1" id="Layer" xmlns="http://www.w3.org/2000/svg" xmlns:xlink="http://www.w3.org/1999/xlink" x="0px" y="0px"
	 viewBox="0 0 500.1 388" style="enable-background:new 0 0 500.1 388;" xml:space="preserve">
<style type="text/css">
	.st0{fill:#FE5607;}
</style>
<path class="st0" d="M68.1,114c0-7.3-4.3-13.9-11.1-16.7s-14.5-1.3-19.7,3.9l-32,32c-3.4,3.4-5.3,8-5.3,12.8s1.9,9.2,5.3,12.6
	c4.9,4.9,12.1,6.6,18.8,4.3l7.9-2.7V274c0,9.9,8.1,18,18,18s18-8.1,18-18L68.1,114L68.1,114z"/>
<path class="st0" d="M212.1,134c0-21-17-38-38-38h-32c-21,0-38,17-38,38v120c0,21,17,38,38,38h32c21,0,38-17,38-38V134z M176.1,256
	h-36V132h36V256z"/>
<path class="st0" d="M356.1,134c0-21-17-38-38-38h-32c-21,0-38,17-38,38v120c0,21,17,38,38,38h32c21,0,38-17,38-38V134z M320.1,256
	h-36v-44h36V256z M320.1,176h-36v-44h36V176z"/>
<path class="st0" d="M500.1,134c0-21-17-38-38-38h-32c-21,0-38,17-38,38v120c0,21,17,38,38,38h32c21,0,38-17,38-38V134z M464.1,256
	h-36V132h36V256z"/>
<path class="st0" d="M482.1,0h-464c-9.9,0-18,8.1-18,18s8.1,18,18,18h464c9.9,0,18-8.1,18-18S492,0,482.1,0z"/>
<path class="st0" d="M482.1,352h-464c-9.9,0-18,8.1-18,18s8.1,18,18,18h464c9.9,0,18-8.1,18-18S492,352,482.1,352z"/>
</svg>
